<?xml version="1.0" encoding="UTF-8"?>
<svg width="839px" height="200px" viewBox="0 0 839 200" version="1.1" xmlns="http://www.w3.org/2000/svg" xmlns:xlink="http://www.w3.org/1999/xlink">
    <title>intro-animation</title>
    <g id="Page-1" stroke="none" stroke-width="1" fill="none" fill-rule="evenodd">
        <g id="intro-animation" fill="#FFFFFF" fill-rule="nonzero">
            <g id="claim" transform="translate(461.983, 0.8037)">
                <g id="machen" transform="translate(1.7631, 142.8444)">
                    <path d="M90.3514503,0 C94.8280337,0 98.0767338,0.977294898 100.09755,2.92830486 C102.118367,4.88110474 103.208427,8.1083258 103.371309,12.6063882 C103.392788,13.3653132 103.399948,14.2423727 103.387419,15.2429365 C103.376679,16.2417104 103.35878,17.2404844 103.337301,18.2392583 C103.314032,19.2398221 103.290763,20.129411 103.267494,20.909815 L94.3805543,20.909815 C94.4038233,19.9897975 94.4253023,18.9337462 94.4503611,17.7398713 C94.47363,16.5459964 94.4879494,15.3449618 94.5004788,14.1385575 C94.5130082,12.9339431 94.5058486,11.8832616 94.4825796,10.986513 C94.4593107,9.74789013 94.0923776,8.81713309 93.3817804,8.19603175 C92.6693933,7.57493042 91.6598799,7.26527471 90.3514503,7.26527471 C88.971424,7.26527471 87.9332719,7.57493042 87.2334142,8.19603175 C86.5335565,8.81713309 86.1594637,9.74610022 86.1147158,10.986513 C86.0216401,13.628431 85.958993,16.4063828 85.9267745,19.3221583 C85.8909761,22.2397236 85.8748669,25.1895075 85.8748669,28.1750897 C85.8748669,31.158882 85.892766,34.1032961 85.9267745,37.010122 C85.9607829,39.9151579 86.02343,42.7002694 86.1147158,45.3636665 C86.1594637,46.6022893 86.5389262,47.5330463 87.2513134,48.1541477 C87.9637005,48.775249 88.9964828,49.0849047 90.3514503,49.0849047 C91.7744346,49.0849047 92.8591246,48.775249 93.6055201,48.1541477 C94.3519157,47.5330463 94.7367479,46.6040792 94.7600168,45.3636665 C94.7832858,44.398901 94.7958152,43.3124211 94.7958152,42.1095966 C94.7958152,40.9031923 94.7886555,39.6914182 94.777916,38.4760643 C94.7653866,37.2571306 94.7474874,36.1921297 94.7260084,35.2721122 L103.612948,35.2721122 C103.682755,36.5805418 103.711394,37.9892068 103.700654,39.4909475 C103.688125,40.996268 103.670226,42.4138826 103.648747,43.7455811 C103.487654,48.2687024 102.379695,51.5012932 100.32666,53.4415637 C98.266465,55.3818341 94.9425884,56.3519694 90.3514503,56.3519694 C85.6672365,56.3519694 82.3308304,55.3818341 80.3440221,53.4415637 C78.3572138,51.5012932 77.3190617,48.2687024 77.2277759,43.7455811 C77.204507,41.4938651 77.1758683,39.0309387 77.1418599,36.3568021 C77.1060616,33.6808756 77.0899523,30.9494617 77.0899523,28.1589805 C77.0899523,25.3684992 77.1078515,22.6352954 77.1418599,19.9611588 C77.1758683,17.2852323 77.204507,14.8115664 77.2277759,12.5383714 C77.2957928,8.63456151 78.3643735,5.56843302 80.4299382,3.34177578 C82.4972927,1.11332862 85.8050601,0 90.3514503,0 Z M161.926667,0.619311419 L161.926667,8.47346895 L149.07864,8.47346895 L149.07864,23.83633 L161.237549,23.83633 L161.237549,31.6904875 L149.07864,31.6904875 L149.07864,47.8785004 L161.926667,47.8785004 L161.926667,55.7326579 L140.18991,55.7326579 L140.18991,0.619311419 L161.926667,0.619311419 Z M179.560933,0.619311419 L183.454004,18.1515523 L187.449099,47.8767105 L189.171,47.8767105 L187.517116,23.2152286 L186.829788,0.619311419 L195.475089,0.619311419 L195.475089,55.730868 L181.662296,55.730868 L177.701209,37.26966 L174.602862,8.40366217 L172.743138,8.40366217 L174.259198,34.7208176 L175.016333,55.730868 L166.437259,55.730868 L166.437259,0.619311419 L179.560933,0.619311419 Z M212.010346,47.0175501 L212.010346,55.730868 L201.331699,55.730868 L201.331699,47.0175501 L212.010346,47.0175501 Z M14.5359192,0.619311419 L18.7726536,21.906799 L19.979058,47.8104835 L21.6329416,47.8104835 L22.8035476,21.906799 L27.1100889,0.619311419 L41.6119996,0.619311419 L41.6119996,55.730868 L32.7250597,55.730868 L32.7250597,38.9897706 L34.3789434,8.47167903 L32.6230344,8.47167903 L29.5228975,39.5750736 L25.699634,55.6610612 L15.8479286,55.6610612 L12.0926819,39.5750736 L8.95853656,8.47167903 L7.27064446,8.47167903 L8.8905197,38.9897706 L8.8905197,55.730868 L0,55.730868 L0,0.619311419 L14.5359192,0.619311419 Z M67.0306165,0.619311419 L74.2278744,55.730868 L65.0992957,55.730868 L63.8606728,43.1244798 L55.8686917,43.1244798 L54.6282789,55.730868 L45.5014901,55.730868 L52.7005379,0.619311419 L67.0306165,0.619311419 Z M117.735397,0.619311419 L117.735397,23.83633 L125.347915,23.83633 L125.347915,0.619311419 L134.234855,0.619311419 L134.234855,55.730868 L125.347915,55.730868 L125.347915,31.6886976 L117.735397,31.6886976 L117.735397,55.730868 L108.846667,55.730868 L108.846667,0.619311419 L117.735397,0.619311419 Z M60.8285528,8.47346895 L58.9008117,8.47346895 L57.9002479,23.077405 L56.6616251,35.2703223 L63.0677394,35.2703223 L61.8291166,23.077405 L60.8285528,8.47346895 Z" id="path"></path>
                </g>
                <g id="versichern" transform="translate(0, 71.2119)">
                    <path d="M102.646393,0 C107.03169,0 110.223113,0.97550498 112.222451,2.92830486 C114.219999,4.88110474 115.320798,8.1083258 115.530218,12.6081781 C115.574966,13.6642294 115.574966,14.9619195 115.530218,16.5012485 C115.48368,18.0387875 115.437143,19.5208391 115.392395,20.9438234 L106.850909,20.9438234 C106.918926,19.2899398 106.960094,17.6306863 106.970833,15.9660632 C106.981573,14.30144 106.952934,12.6421866 106.884917,10.9883029 C106.859858,9.77115906 106.475026,8.84756169 105.728631,8.21572084 C104.982235,7.58388 103.944083,7.26885454 102.612384,7.26885454 C101.18761,7.26885454 100.136929,7.58566992 99.4603399,8.21572084 C98.7819612,8.84756169 98.3863895,9.77115906 98.2718348,10.9883029 C98.15728,12.3200014 98.1000027,13.6570697 98.1000027,15.0012977 C98.1000027,16.3455257 98.1554901,17.6718544 98.2718348,18.9802841 C98.3631205,20.174159 98.6620367,21.1854623 99.1667935,22.0106142 C99.6715502,22.837556 100.54682,23.3995901 101.785443,23.6985063 L106.297824,24.8010954 C108.685574,25.35239 110.550668,26.1954411 111.894896,27.3338285 C113.237334,28.4704261 114.2021,29.8880407 114.787403,31.5866723 C115.372706,33.2870938 115.70026,35.2739021 115.770067,37.5453073 C115.793336,38.3042323 115.807655,39.0219891 115.820185,39.6985779 C115.832714,40.3769566 115.825555,41.041016 115.802286,41.6961257 C115.779017,42.3494456 115.757538,43.033194 115.734269,43.7455811 C115.528428,48.2704923 114.441949,51.5138226 112.480199,53.477362 C110.51666,55.4391115 107.226791,56.4199862 102.610595,56.4199862 C98.0409354,56.4199862 94.7743362,55.4391115 92.8107968,53.4737822 C90.8454675,51.5102428 89.7858364,48.2687024 89.6247438,43.7420013 C89.6014749,42.8237737 89.5853656,41.8894368 89.5728362,40.9354108 C89.5620967,39.9831748 89.578206,39.025569 89.6247438,38.0608035 C89.6694918,37.096038 89.7375086,36.165281 89.8305843,35.2703223 L98.202028,35.2703223 C98.1089523,37.0387607 98.0570447,38.7892999 98.0463052,40.5237298 C98.0337757,42.2581598 98.0856833,43.8708754 98.202028,45.3636665 C98.3147928,46.5808103 98.7228939,47.5097774 99.4245416,48.1541477 C100.126189,48.7985179 101.19835,49.1189132 102.646393,49.1189132 C104.024629,49.1189132 105.026983,48.796728 105.660614,48.1541477 C106.292455,47.5115673 106.688026,46.5808103 106.849119,45.3636665 C106.917136,44.4669179 106.969043,43.6005978 107.004842,42.7629165 C107.03885,41.9234452 107.03885,41.0857639 107.004842,40.2480826 C106.969043,39.4104012 106.917136,38.5082828 106.849119,37.5435174 C106.734564,36.3961803 106.435648,35.3866669 105.95237,34.5131872 C105.470883,33.6414974 104.65468,33.0561945 103.507343,32.7572783 L98.37565,31.4828571 C96.1489927,30.8868146 94.3859241,30.0419736 93.088234,28.9519139 C91.7905439,27.8618542 90.8615767,26.4889875 90.2977528,24.8351039 C89.7339288,23.1812202 89.4206932,21.2302102 89.3508865,18.9802841 C89.327696,17.832947 89.3222478,16.7410974 89.3329873,15.7083151 C89.3455167,14.6755327 89.3634159,13.6409605 89.3848949,12.6081781 C89.5227185,9.59932699 90.0274752,7.17756876 90.9009549,5.33932359 C91.7726447,3.50286834 93.1580408,2.15327063 95.0517734,1.29232036 C96.945506,0.431370092 99.4782391,0 102.646393,0 Z M148.42353,0.0340084305 C152.900114,0.0340084305 156.148814,1.00951341 158.16963,2.96231329 C160.190447,4.91511317 161.280507,8.14054431 161.443389,12.6403966 C161.464868,13.3975317 161.472028,14.2763811 161.459499,15.2751551 C161.448759,16.273929 161.43086,17.2727029 161.409381,18.2714768 C161.387902,19.2702507 161.362843,20.1616295 161.339574,20.9420335 L152.452634,20.9420335 C152.475903,20.0238059 152.497382,18.9659647 152.522441,17.7720898 C152.54571,16.5782149 152.560029,15.3789703 152.572559,14.1725659 C152.585088,12.9679515 152.577929,11.91727 152.55466,11.0205214 C152.531391,9.78010865 152.164458,8.85114152 151.45386,8.23004018 C150.741473,7.60893885 149.73196,7.29928314 148.42353,7.29928314 C147.043504,7.29928314 146.005352,7.60893885 145.305494,8.23004018 C144.603847,8.8493516 144.231544,9.78010865 144.186796,11.0205214 C144.09372,13.6624395 144.031073,16.4403913 143.998854,19.3561667 C143.963056,22.2719421 143.946947,25.2235159 143.946947,28.2073082 C143.946947,31.1928904 143.964846,34.1373046 143.998854,37.0441304 C144.032863,39.9491663 144.09551,42.7324879 144.186796,45.395885 C144.231544,46.6362977 144.611006,47.5670548 145.323393,48.1863662 C146.033991,48.8074675 147.068563,49.1189132 148.42353,49.1189132 C149.846515,49.1189132 150.931205,48.8074675 151.6776,48.1863662 C152.423996,47.5670548 152.808828,46.6380877 152.832097,45.395885 C152.855366,44.4329094 152.867895,43.3464296 152.867895,42.1418152 C152.867895,40.9372007 152.860735,39.7254267 152.849996,38.5082828 C152.837467,37.291139 152.819567,36.2243482 152.798088,35.3043307 L161.685028,35.3043307 C161.754835,36.6127603 161.783474,38.0214253 161.772734,39.523166 C161.760205,41.0284865 161.742306,42.4461011 161.720827,43.7777997 C161.559734,48.3009209 160.451775,51.5335117 158.39874,53.4737822 C156.338545,55.4176325 153.014668,56.3859778 148.42353,56.3859778 C143.739316,56.3859778 140.40291,55.4176325 138.416102,53.4755721 C136.431084,51.5353016 135.391142,48.3027108 135.299856,43.7795896 C135.276587,41.5296634 135.247948,39.0667371 135.21394,36.3908106 C135.178142,33.716674 135.162032,30.9834701 135.162032,28.1929889 C135.162032,25.4042976 135.179931,22.6710937 135.21394,19.9951672 C135.247948,17.3192407 135.276587,14.8455749 135.299856,12.5723798 C135.367873,8.66856995 136.436453,5.60244145 138.502018,3.37578421 C140.569373,1.14733705 143.87714,0.0340084305 148.42353,0.0340084305 Z M55.2153718,0.655109767 L55.2153718,8.5092673 L42.3673447,8.5092673 L42.3673447,23.8721283 L54.5262536,23.8721283 L54.5262536,31.7244959 L42.3673447,31.7244959 L42.3673447,47.9142988 L55.2153718,47.9142988 L55.2153718,55.7684563 L33.478615,55.7684563 L33.478615,0.655109767 L55.2153718,0.655109767 Z M129.616868,0.655109767 L129.616868,55.7684563 L120.728138,55.7684563 L120.728138,0.655109767 L129.616868,0.655109767 Z M219.996957,0.655109767 L219.996957,8.5092673 L207.14893,8.5092673 L207.14893,23.8721283 L219.307839,23.8721283 L219.307839,31.7244959 L207.14893,31.7244959 L207.14893,47.9142988 L219.996957,47.9142988 L219.996957,55.7684563 L198.2602,55.7684563 L198.2602,0.655109767 L219.996957,0.655109767 Z M175.807476,0.655109767 L175.807476,23.8721283 L183.419995,23.8721283 L183.419995,0.655109767 L192.306935,0.655109767 L192.306935,55.7684563 L183.419995,55.7684563 L183.419995,31.7244959 L175.807476,31.7244959 L175.807476,55.7684563 L166.918747,55.7684563 L166.918747,0.655109767 L175.807476,0.655109767 Z M236.562643,0.655109767 C241.17884,0.655109767 244.520615,1.60913574 246.58797,3.51360785 C248.653535,5.41986987 249.766863,8.56654465 249.927956,12.9518423 C249.997763,14.4213645 250.031771,15.7476932 250.031771,16.9308286 L250.031771,20.4283272 C250.031771,21.5774542 249.997763,22.8518754 249.927956,24.2515908 C249.859939,27.0528115 249.389191,29.3313764 248.515711,31.0872853 C247.644021,32.8431943 246.312323,34.171313 244.522405,35.0680616 L250.754898,55.7684563 L241.318453,55.7684563 L236.150962,36.5483233 L233.396279,36.5483233 L233.396279,55.7684563 L224.507549,55.7684563 L224.507549,0.655109767 L236.562643,0.655109767 Z M268.287139,0.655109767 L272.180209,18.1873507 L276.175305,47.9125088 L277.897205,47.9125088 L276.243321,23.249237 L275.555993,0.655109767 L284.201294,0.655109767 L284.201294,55.7684563 L270.388502,55.7684563 L266.427414,37.3054584 L263.329067,8.44125044 L261.469343,8.44125044 L262.985403,34.756616 L263.742538,55.7684563 L255.163464,55.7684563 L255.163464,0.655109767 L268.287139,0.655109767 Z M9.16258715,0.655109767 L12.9858507,29.0718383 L13.8127925,47.9125088 L15.7083151,47.9125088 L16.5352569,29.0718383 L20.3209322,0.655109767 L29.5193177,0.655109767 L22.0786311,55.7684563 L7.43889669,55.7684563 L0,0.655109767 L9.16258715,0.655109767 Z M71.7810573,0.655109767 C76.3972543,0.655109767 79.73903,1.60913574 81.8063846,3.51360785 C83.8719493,5.41986987 84.9852779,8.56654465 85.1463705,12.9518423 C85.2161773,14.4213645 85.2501857,15.7476932 85.2501857,16.9308286 L85.2501857,20.4283272 C85.2501857,21.5774542 85.2161773,22.8518754 85.1463705,24.2515908 C85.0783536,27.0528115 84.6076054,29.3313764 83.7341257,31.0872853 C82.8624359,32.8431943 81.5307374,34.171313 79.74082,35.0680616 L85.9733123,55.7684563 L76.5368678,55.7684563 L71.3693763,36.5483233 L68.6146934,36.5483233 L68.6146934,55.7684563 L59.7259636,55.7684563 L59.7259636,0.655109767 L71.7810573,0.655109767 Z M300.736551,47.0515586 L300.736551,55.7666664 L290.057904,55.7666664 L290.057904,47.0515586 L300.736551,47.0515586 Z M236.564433,8.5092673 L233.396279,8.5092673 L233.396279,28.7281742 L236.530424,28.7281742 C237.998156,28.7281742 239.102535,28.3773504 239.838191,27.6774927 C240.572058,26.977635 240.974789,25.9949703 241.042806,24.7312887 C241.112613,23.422859 241.157361,22.0732613 241.18063,20.6842854 C241.203898,19.2953095 241.203898,17.9117034 241.18063,16.533467 C241.157361,15.1552306 241.112613,13.8110026 241.042806,12.5043629 C240.974789,11.1726644 240.577427,10.1738905 239.854301,9.5080412 C239.132964,8.84219193 238.033955,8.5092673 236.564433,8.5092673 Z M71.7828472,8.5092673 L68.6146934,8.5092673 L68.6146934,28.7281742 L71.7488388,28.7281742 C73.2165711,28.7281742 74.3209501,28.3773504 75.0566061,27.6774927 C75.7904723,26.977635 76.1932037,25.9949703 76.2612205,24.7312887 C76.3310273,23.422859 76.3757753,22.0732613 76.3990442,20.6842854 C76.4223131,19.2953095 76.4223131,17.9117034 76.3990442,16.533467 C76.3757753,15.1552306 76.3310273,13.8110026 76.2612205,12.5043629 C76.1932037,11.1726644 75.795842,10.1738905 75.0727154,9.5080412 C74.3513787,8.84219193 73.2523694,8.5092673 71.7828472,8.5092673 Z" id="path"></path>
                </g>
                <g id="vertrauen" transform="translate(0, 0)">
                    <path d="M186.414527,4.97379915e-14 C186.34651,4.7540206 186.303552,9.67450352 186.294603,14.7596588 C186.282073,19.8466041 186.289233,24.9263896 186.312502,30.0025954 C186.335771,35.0788011 186.367989,40.0028639 186.416317,44.7783635 C186.416317,45.9722384 186.78325,46.8850963 187.518906,47.5169371 C188.252772,48.1487779 189.308823,48.4638034 190.68706,48.4638034 C192.088565,48.4638034 193.139247,48.1487779 193.840894,47.5169371 C194.540752,46.8850963 194.891576,45.9722384 194.891576,44.7783635 C194.936324,40.0028639 194.977492,35.0770112 195.0115,30.0025954 C195.045509,24.9281796 195.056248,19.8466041 195.045509,14.7596588 C195.032979,9.67450352 194.982862,4.7540206 194.891576,4.97379915e-14 L203.778516,4.97379915e-14 C203.89128,7.11850148 203.950348,14.30144 203.950348,21.5452357 C203.950348,28.7908213 203.89307,35.9952388 203.778516,43.1602782 C203.731978,47.6619204 202.702775,50.8873515 200.694488,52.8401514 C198.682621,54.7929513 195.346215,55.7684563 190.68527,55.7684563 C186.024325,55.7684563 182.682549,54.7929513 180.661732,52.8401514 C178.640916,50.8873515 177.595604,47.6619204 177.527587,43.1602782 C177.45778,35.9952388 177.423772,28.7908213 177.423772,21.5452357 C177.423772,14.30144 177.45778,7.11850148 177.527587,4.97379915e-14 L186.414527,4.97379915e-14 Z M71.7810573,0.0017899174 C76.3972543,0.0017899174 79.73903,0.955815889 81.8063846,2.860288 C83.8719493,4.76655002 84.9852779,7.9132248 85.1463705,12.2985224 C85.2161773,13.7680446 85.2501857,15.0943734 85.2501857,16.2775088 L85.2501857,19.7750074 C85.2501857,20.9241344 85.2161773,22.1985555 85.1463705,23.5982709 C85.0783536,26.3994917 84.6076054,28.6780565 83.7341257,30.4357554 C82.8624359,32.1916644 81.5307374,33.5197831 79.74082,34.4147418 L85.9733123,55.1151364 L76.5368678,55.1151364 L71.3693763,35.8950034 L68.6146934,35.8950034 L68.6146934,55.1151364 L59.7259636,55.1151364 L59.7259636,0.0017899174 L71.7810573,0.0017899174 Z M9.16258715,0.0017899174 L12.9858507,28.4185185 L13.8127925,47.259189 L15.7083151,47.259189 L16.5352569,28.4185185 L20.3227221,0.0017899174 L29.5211076,0.0017899174 L22.080421,55.1151364 L7.43889669,55.1151364 L0,0.0017899174 L9.16258715,0.0017899174 Z M128.92596,0.0017899174 C133.542157,0.0017899174 136.883933,0.955815889 138.951287,2.860288 C141.016852,4.76655002 142.130181,7.9132248 142.291273,12.2985224 C142.36108,13.7680446 142.395088,15.0943734 142.395088,16.2775088 L142.395088,19.7750074 C142.395088,20.9241344 142.36108,22.1985555 142.291273,23.5982709 C142.223256,26.3994917 141.752508,28.6780565 140.879028,30.4357554 C140.007339,32.1916644 138.67564,33.5197831 136.885723,34.4147418 L143.118215,55.1151364 L133.681771,55.1151364 L128.514279,35.8950034 L125.759596,35.8950034 L125.759596,55.1151364 L116.870866,55.1151364 L116.870866,0.0017899174 L128.92596,0.0017899174 Z M281.102947,46.4000286 L281.102947,55.1151364 L270.4243,55.1151364 L270.4243,46.4000286 L281.102947,46.4000286 Z M248.655325,0.0017899174 L252.548395,17.5340308 L256.543491,47.259189 L258.265391,47.259189 L256.611507,22.5959172 L255.922389,0 L264.56769,0 L264.56769,55.1133465 L250.754898,55.1133465 L246.79381,36.6503486 L243.695463,7.78614067 L241.835739,7.78614067 L243.351799,34.1032961 L244.108934,55.1151364 L235.53165,55.1151364 L235.53165,0.0017899174 L248.655325,0.0017899174 Z M113.459284,0.0017899174 L113.459284,7.85594745 L105.055622,7.85594745 L105.055622,55.1151364 L96.1686818,55.1151364 L96.1686818,7.85594745 L87.7972382,7.85594745 L87.7972382,0.0017899174 L113.459284,0.0017899174 Z M166.952755,0.0017899174 L174.150013,55.1151364 L165.021434,55.1151364 L163.782811,42.5087482 L155.79083,42.5087482 L154.550417,55.1151364 L145.423629,55.1151364 L152.622676,0.0017899174 L166.952755,0.0017899174 Z M55.2153718,0.0017899174 L55.2153718,7.85594745 L42.3673447,7.85594745 L42.3673447,23.2188085 L54.5262536,23.2188085 L54.5262536,31.072966 L42.3673447,31.072966 L42.3673447,47.2609789 L55.2153718,47.2609789 L55.2153718,55.1151364 L33.478615,55.1151364 L33.478615,0.0017899174 L55.2153718,0.0017899174 Z M231.022848,0.0017899174 L231.022848,7.85594745 L218.174821,7.85594745 L218.174821,23.2188085 L230.33373,23.2188085 L230.33373,31.072966 L218.174821,31.072966 L218.174821,47.2609789 L231.022848,47.2609789 L231.022848,55.1151364 L209.286091,55.1151364 L209.286091,0.0017899174 L231.022848,0.0017899174 Z M160.750691,7.85415753 L158.82295,7.85415753 L157.822386,22.4598835 L156.583764,34.6528008 L162.989878,34.6528008 L161.751255,22.4598835 L160.750691,7.85415753 Z M71.7828472,7.85594745 L68.6146934,7.85594745 L68.6146934,28.0748543 L71.7488388,28.0748543 C73.2165711,28.0748543 74.3209501,27.7240305 75.0566061,27.0241728 C75.7904723,26.3243151 76.1932037,25.3416505 76.2612205,24.0779688 C76.3310273,22.7695392 76.3757753,21.4199415 76.3990442,20.0309656 C76.4223131,18.6419897 76.4223131,17.2583835 76.3990442,15.8801471 C76.3757753,14.5019107 76.3310273,13.1576828 76.2612205,11.8510431 C76.1932037,10.5193445 75.795842,9.52057063 75.0727154,8.85472135 C74.3513787,8.18887208 73.2523694,7.85594745 71.7828472,7.85594745 Z M128.92596,7.85594745 L125.757806,7.85594745 L125.757806,28.0748543 L128.891952,28.0748543 C130.359684,28.0748543 131.464063,27.7240305 132.199719,27.0241728 C132.933585,26.3243151 133.336317,25.3416505 133.404333,24.0779688 C133.47414,22.7695392 133.518888,21.4199415 133.542157,20.0309656 C133.565426,18.6419897 133.565426,17.2583835 133.542157,15.8801471 C133.518888,14.5019107 133.47414,13.1576828 133.404333,11.8510431 C133.336317,10.5193445 132.938955,9.52057063 132.215828,8.85472135 C131.494492,8.18887208 130.395482,7.85594745 128.92596,7.85594745 Z" id="path"></path>
                </g>
            </g>
            <g id="wortmarke" transform="translate(461.9777, 0)">
                <path d="M158.586681,144.446334 L158.586681,152.32197 L145.699276,152.32197 L145.699276,167.71526 L157.870714,167.71526 L157.870714,175.590896 L145.699276,175.590896 L145.699276,191.700153 L158.586681,191.700153 L158.586681,199.57579 L136.928681,199.396798 L136.928681,144.446334 L158.586681,144.446334 Z M89.316878,144.446334 L89.1378863,157.691723 L87.5269606,170.400136 L89.1378863,170.400136 L92.7177211,157.333739 L97.3715063,144.446334 L107.03706,144.446334 L98.0874733,167.536268 L107.574035,199.396798 L98.6244485,199.396798 L92.3597376,177.380814 L88.7799028,185.435442 L88.7799028,199.396798 L79.8303158,199.396798 L79.8303158,144.446334 L89.316878,144.446334 Z M120.103457,144.446334 L120.103457,191.521161 L132.990862,191.521161 L132.990862,199.396798 L111.15387,199.396798 L111.15387,144.446334 L120.103457,144.446334 Z M16.2882483,144.446334 L20.58405,165.746351 L21.8369922,191.521161 L23.4479179,191.521161 L24.5218683,165.746351 L28.8176701,144.446334 L43.316001,144.446334 L43.316001,199.396798 L34.366414,199.396798 L34.366414,182.750566 L36.1563314,152.32197 L34.366414,152.32197 L31.3235544,183.287541 L27.5647279,199.396798 L17.7201822,199.396798 L13.9613557,183.287541 L10.7395044,152.32197 L8.94958698,152.32197 L10.5605126,182.750566 L10.5605126,199.396798 L1.7899174,199.396798 L1.7899174,144.446334 L16.2882483,144.446334 Z M68.732828,144.446334 L75.8924976,199.396798 L66.7639188,199.396798 L65.5109767,186.867376 L57.6353401,186.867376 L56.382398,199.396798 L47.2538192,199.396798 L54.4134888,144.446334 L68.732828,144.446334 Z M175.053921,144.446334 C179.707706,144.446334 183.10855,145.341292 185.077459,147.310202 C187.046368,149.279111 188.29931,152.32197 188.478302,156.796764 C188.478302,158.228698 188.478302,159.660632 188.657293,160.734582 L188.657293,164.314417 C188.657293,165.388367 188.657293,166.820301 188.478302,168.073243 C188.478302,170.937111 187.941327,173.085012 187.046368,174.87493 C186.151409,176.664847 184.898467,177.917789 183.10855,178.812748 L189.37326,199.396798 L179.886698,199.396798 L174.695938,180.244682 L172.011062,180.244682 L172.011062,199.396798 L163.061475,199.396798 L163.061475,144.446334 L175.053921,144.446334 Z M62.2891254,152.32197 L60.3202162,152.32197 L59.2462658,166.820301 L58.3513071,178.99174 L64.616018,178.99174 L63.3630758,166.820301 L62.2891254,152.32197 Z M175.411905,152.142979 L172.190053,152.142979 L172.011062,172.369045 L175.232913,172.369045 C176.664847,172.369045 177.917789,172.011062 178.633756,171.295095 C179.349723,170.579128 179.707706,169.684169 179.886698,168.252235 C179.886698,166.999293 180.06569,165.567359 180.06569,164.314417 L180.06569,160.197607 C180.06569,158.944665 180.06569,157.512731 179.886698,156.259789 C179.886698,155.006846 179.349723,153.932896 178.633756,153.216929 C177.917789,152.500962 176.843839,152.142979 175.411905,152.142979 Z" id="makler"></path>
                <path d="M363.711215,71.7756876 C368.186008,71.7756876 371.40786,72.6706462 373.376769,74.6395554 C375.345678,76.6084645 376.419628,79.8303158 376.59862,84.3051093 L376.59862,88.2429276 C376.59862,89.8538532 376.59862,91.2857872 376.419628,92.7177211 L367.828025,92.7177211 C367.828025,91.1067954 368.007016,89.316878 368.007016,87.7059524 L368.007016,82.6941837 C368.007016,81.4412415 367.649033,80.5462828 366.754074,80.0093076 C366.038107,79.2933406 364.964157,79.1143489 363.711215,79.1143489 C362.279281,79.1143489 361.20533,79.4723324 360.489363,80.0093076 C359.773396,80.7252745 359.415413,81.6202332 359.236421,82.6941837 C359.093228,83.6965374 359.064589,84.8134459 359.058861,85.8616215 L359.057429,86.6320019 C359.057429,87.8849441 359.057429,89.316878 359.236421,90.5698202 C359.415413,91.8227624 359.594405,92.7177211 360.13138,93.6126798 C360.668355,94.5076385 361.563314,95.0446137 362.816256,95.2236054 L367.29105,96.2975559 C369.617942,96.8345311 371.40786,97.7294898 372.839793,98.8034402 C374.271727,99.8773907 375.166686,101.309325 375.703661,103.099242 C376.240636,104.710168 376.59862,106.858069 376.59862,109.005969 L376.59862,115.091689 C376.419628,119.566482 375.345678,122.788333 373.376769,124.757242 C371.765843,127.263127 368.543992,128.337077 363.890206,128.158086 C359.415413,128.158086 356.01457,127.263127 354.045661,125.294218 C352.076752,123.325309 351.002801,120.103457 350.823809,115.628664 L350.823809,109.900928 C350.823809,109.005969 351.002801,107.932019 351.002801,107.03706 L359.415413,107.03706 C359.415413,108.826978 359.236421,110.616895 359.236421,112.227821 C359.236421,114.017738 359.236421,115.628664 359.415413,117.060598 C359.594405,118.31354 359.952388,119.208499 360.668355,119.924465 C361.384322,120.640432 362.458273,120.819424 363.890206,120.819424 C365.32214,120.819424 366.217099,120.461441 366.933066,119.924465 C367.649033,119.38749 368.007016,118.31354 368.007016,117.060598 C368.007016,116.165639 368.186008,115.27068 368.186008,114.375722 L368.186008,111.869837 C368.186008,110.974879 368.186008,110.07992 368.007016,109.184961 C368.007016,108.111011 367.649033,107.03706 367.112058,106.142102 C366.575083,105.247143 365.859116,104.710168 364.606173,104.352184 L359.415413,103.099242 C357.267512,102.562267 355.477595,101.667308 354.224653,100.593358 C352.97171,99.5194072 352.076752,98.0874733 351.539776,96.4765476 C351.002801,94.865622 350.644818,92.8967128 350.644818,90.5698202 L350.644818,84.3051093 C350.823809,81.2622497 351.181793,78.9353571 352.076752,76.966448 C352.97171,74.9975389 354.403644,73.7445967 356.193562,73.0286297 C358.162471,72.133671 360.668355,71.7756876 363.711215,71.7756876 Z M102.025292,71.7756876 C106.500085,71.7756876 109.721936,72.6706462 111.690845,74.6395554 C113.659755,76.6084645 114.733705,79.8303158 114.912697,84.3051093 L114.912697,88.2429276 C114.912697,89.8538532 114.912697,91.2857872 114.733705,92.7177211 L106.142102,92.7177211 C106.142102,91.1067954 106.321093,89.316878 106.321093,87.7059524 L106.321093,82.6941837 C106.321093,81.4412415 105.96311,80.5462828 105.068151,80.0093076 C104.352184,79.2933406 103.278234,79.1143489 102.025292,79.1143489 C100.593358,79.1143489 99.5194072,79.4723324 98.8034402,80.0093076 C98.0874733,80.7252745 97.7294898,81.6202332 97.550498,82.6941837 C97.4073047,83.6965374 97.378666,84.8134459 97.3729382,85.8616215 L97.3715063,86.6320019 C97.3715063,87.8849441 97.3715063,89.316878 97.550498,90.5698202 C97.7294898,91.8227624 97.9084815,92.7177211 98.4454567,93.6126798 C98.982432,94.5076385 99.8773907,95.0446137 101.130333,95.2236054 L105.605126,96.2975559 C107.932019,96.8345311 109.900928,97.7294898 111.15387,98.8034402 C112.585804,99.8773907 113.480763,101.309325 114.017738,103.099242 C114.554713,104.710168 114.912697,106.858069 114.912697,109.005969 L114.912697,115.091689 C114.733705,119.566482 113.659755,122.788333 111.690845,124.757242 C109.721936,126.726152 106.679077,128.337077 102.204283,128.158086 C97.7294898,128.158086 94.3286467,127.263127 92.3597376,125.294218 C90.3908285,123.325309 89.316878,120.103457 89.1378863,115.628664 L89.1378863,109.900928 C89.1378863,109.005969 89.316878,107.932019 89.316878,107.03706 L97.7294898,107.03706 C97.7294898,108.826978 97.550498,110.616895 97.550498,112.227821 C97.550498,114.017738 97.550498,115.628664 97.7294898,117.060598 C97.9084815,118.31354 98.266465,119.208499 98.982432,119.924465 C99.6983989,120.640432 100.772349,120.819424 102.204283,120.819424 C103.636217,120.819424 104.710168,120.461441 105.247143,119.924465 C105.784118,119.38749 106.321093,118.31354 106.321093,117.060598 C106.321093,116.165639 106.500085,115.27068 106.500085,114.375722 L106.500085,111.869837 C106.500085,110.974879 106.500085,110.07992 106.321093,109.184961 C106.321093,108.111011 105.96311,107.03706 105.426135,106.142102 C104.889159,105.247143 104.173192,104.710168 102.92025,104.352184 L97.7294898,103.099242 C95.5815889,102.562267 93.7916715,101.667308 92.5387293,100.593358 C91.2857872,99.5194072 90.3908285,98.0874733 89.8538532,96.4765476 C89.316878,94.865622 88.9588945,92.8967128 88.9588945,90.5698202 L88.9588945,84.3051093 C89.1378863,81.2622497 89.4958698,78.9353571 90.3908285,76.966448 C91.2857872,74.9975389 92.7177211,73.7445967 94.5076385,73.0286297 C96.4765476,72.133671 98.982432,71.7756876 102.025292,71.7756876 Z M147.847177,71.9546793 C152.32197,71.9546793 155.543822,72.849638 157.691723,74.8185471 C159.839623,76.7874563 160.734582,80.0093076 160.913574,84.4841011 L160.913574,92.8967128 L151.963987,92.8967128 L151.963987,82.8731754 C151.963987,81.6202332 151.606003,80.7252745 150.890036,80.1882993 C150.174069,79.4723324 149.100119,79.2933406 147.847177,79.2933406 C146.594235,79.2933406 145.520284,79.6513241 144.804317,80.1882993 C144.08835,80.9042663 143.730367,81.799225 143.730367,82.8731754 C143.730367,85.5580515 143.551375,88.2429276 143.551375,91.2857872 L143.551375,108.826978 C143.551375,111.690845 143.551375,114.554713 143.730367,117.060598 C143.730367,118.31354 144.08835,119.208499 144.804317,119.924465 C145.520284,120.640432 146.594235,120.819424 147.847177,120.819424 C149.279111,120.819424 150.353061,120.461441 151.069028,119.924465 C151.784995,119.208499 152.142979,118.31354 152.142979,117.060598 L152.142979,107.03706 L161.092566,107.03706 L161.092566,115.628664 C160.913574,120.103457 159.839623,123.325309 157.870714,125.294218 C155.722813,127.263127 152.500962,128.158086 147.847177,128.158086 C143.193392,128.158086 139.792549,127.263127 137.823639,125.294218 C135.85473,123.325309 134.78078,120.103457 134.78078,115.628664 C134.78078,113.480763 134.78078,110.974879 134.601788,108.290002 L134.601788,91.8227624 C134.601788,89.1378863 134.601788,86.6320019 134.78078,84.4841011 C134.78078,80.5462828 135.85473,77.5034232 138.002631,75.3555223 C140.150532,73.2076215 143.372383,71.9546793 147.847177,71.9546793 Z M262.580882,72.6706462 C262.580882,77.3244315 262.40189,82.3362002 262.40189,87.3479689 L262.40189,102.562267 C262.40189,107.574035 262.40189,112.585804 262.580882,117.239589 C262.580882,118.492532 262.938865,119.38749 263.654832,119.924465 C264.370799,120.461441 265.44475,120.819424 266.876684,120.819424 C268.308618,120.819424 269.382568,120.461441 270.098535,119.924465 C270.814502,119.38749 271.172485,118.31354 271.172485,117.239589 C271.172485,112.585804 271.172485,107.574035 271.351477,102.562267 L271.351477,87.3479689 C271.351477,82.3362002 271.351477,77.3244315 271.172485,72.6706462 L280.122072,72.6706462 C280.301064,79.8303158 280.301064,86.9899854 280.301064,94.149655 C280.301064,101.309325 280.301064,108.468994 280.122072,115.628664 C280.122072,120.103457 279.048122,123.325309 277.079213,125.294218 C274.931312,127.263127 271.530469,128.158086 266.876684,128.158086 C262.222898,128.158086 258.822055,127.263127 256.853146,125.294218 C254.884237,123.325309 253.810287,120.103457 253.631295,115.628664 C253.631295,108.468994 253.452303,101.309325 253.452303,94.149655 C253.452303,86.9899854 253.452303,79.8303158 253.631295,72.6706462 L262.580882,72.6706462 Z M333.282619,71.7756876 C337.578421,71.7756876 340.800272,72.6706462 342.769181,74.6395554 C344.73809,76.6084645 345.991033,79.8303158 346.170024,84.3051093 C346.170024,85.5580515 346.349016,86.9899854 346.349016,88.4219193 C346.349016,89.8538532 346.349016,91.2857872 346.170024,92.5387293 L337.220437,92.5387293 C337.220437,91.1067954 337.399429,89.4958698 337.399429,87.5269606 C337.399429,85.5580515 337.399429,83.9471258 337.220437,82.5151919 C337.220437,81.2622497 336.862454,80.367291 336.146487,79.8303158 C335.43052,79.1143489 334.535561,78.9353571 333.282619,78.9353571 C331.850685,78.9353571 330.776735,79.2933406 330.239759,79.8303158 C329.523792,80.5462828 329.165809,81.4412415 329.165809,82.5151919 C329.01665,84.7525887 328.99179,86.9899854 328.987646,89.3309654 L328.986817,108.290002 C328.986817,111.15387 329.165809,114.017738 329.165809,116.523622 C329.165809,117.776565 329.523792,118.671523 330.239759,119.38749 C330.955726,120.103457 332.029677,120.282449 333.282619,120.282449 C334.535561,120.282449 335.788503,119.924465 336.50447,119.38749 C337.220437,118.850515 337.757412,117.776565 337.757412,116.523622 L337.757412,108.647986 L333.819594,108.647986 L333.819594,100.951341 L346.349016,100.951341 C346.349016,102.92025 346.528008,105.247143 346.528008,107.574035 C346.528008,110.07992 346.528008,112.406812 346.349016,114.912697 C346.170024,119.38749 345.096074,122.609342 342.948173,124.578251 C340.800272,126.54716 337.578421,128.158086 333.282619,128.158086 C330.239759,128.158086 327.733875,127.800102 325.764966,126.905143 C323.796057,126.010185 322.543115,124.757242 321.648156,122.788333 C320.753197,120.998416 320.216222,118.492532 320.216222,115.449672 C320.216222,113.301771 320.03723,110.795887 320.03723,108.111011 L320.03723,92.0017541 C320.03723,89.316878 320.03723,86.9899854 320.216222,84.8420845 C320.395214,81.6202332 320.932189,79.1143489 321.827148,77.1454397 C322.722106,75.1765306 324.15404,73.7445967 325.943958,73.0286297 C327.733875,72.3126628 330.239759,71.7756876 333.282619,71.7756876 Z M298.37923,72.6706462 L302.317048,90.2118367 L306.254866,119.924465 L308.044784,119.924465 L306.433858,95.4025972 L305.717891,72.849638 L314.309495,72.849638 L314.309495,127.800102 L300.527131,127.800102 L296.589312,109.363953 L293.546453,80.5462828 L291.756535,80.5462828 L293.188469,106.858069 L293.904436,127.800102 L285.312833,127.800102 L285.312833,72.6706462 L298.37923,72.6706462 Z M54.950464,72.6706462 L54.950464,80.5462828 L42.0630588,80.5462828 L42.0630588,95.9395724 L54.2344971,95.9395724 L54.2344971,103.815209 L42.0630588,103.815209 L42.0630588,119.924465 L54.950464,119.924465 L54.950464,127.800102 L33.2924636,127.62111 L33.2924636,72.6706462 L54.950464,72.6706462 Z M219.264881,72.6706462 L219.264881,80.5462828 L206.377476,80.5462828 L206.377476,95.9395724 L218.548914,95.9395724 L218.548914,103.815209 L206.377476,103.815209 L206.377476,119.924465 L219.264881,119.924465 L219.264881,127.800102 L197.60688,127.62111 L197.60688,72.6706462 L219.264881,72.6706462 Z M235.732121,72.6706462 C240.385906,72.6706462 243.786749,73.5656049 245.755658,75.5345141 C247.724568,77.5034232 248.97751,80.5462828 249.156501,85.0210763 C249.156501,86.4530102 249.156501,87.8849441 249.335493,88.9588945 L249.335493,92.5387293 C249.335493,93.6126798 249.335493,95.0446137 249.156501,96.2975559 C249.156501,99.1614237 248.619526,101.309325 247.724568,103.099242 C246.829609,104.889159 245.576667,106.142102 243.786749,107.03706 L250.05146,127.62111 L240.564898,127.62111 L235.374137,108.468994 L232.689261,108.468994 L232.689261,127.62111 L223.739674,127.62111 L223.739674,72.6706462 L235.732121,72.6706462 Z M175.232913,72.6706462 L175.232913,95.7605806 L182.750566,95.7605806 L182.750566,72.6706462 L191.700153,72.6706462 L191.700153,127.62111 L182.750566,127.62111 L182.750566,103.636217 L175.232913,103.636217 L175.232913,127.62111 L166.283326,127.62111 L166.283326,72.6706462 L175.232913,72.6706462 Z M129.232036,72.6706462 L129.232036,127.62111 L120.282449,127.62111 L120.282449,72.6706462 L129.232036,72.6706462 Z M71.4177041,72.6706462 C76.0714893,72.6706462 79.4723324,73.5656049 81.4412415,75.5345141 C83.4101506,77.5034232 84.6630928,80.5462828 84.8420845,85.0210763 C84.8420845,86.4530102 84.8420845,87.8849441 85.0210763,88.9588945 L85.0210763,92.5387293 C85.0210763,93.6126798 85.0210763,95.0446137 84.8420845,96.2975559 C84.8420845,99.1614237 84.3051093,101.309325 83.4101506,103.099242 C82.5151919,104.889159 81.2622497,106.142102 79.4723324,107.03706 L85.7370432,127.62111 L76.250481,127.62111 L71.0597206,108.468994 L68.3748445,108.468994 L68.3748445,127.62111 L59.4252575,127.62111 L59.4252575,72.6706462 L71.4177041,72.6706462 Z M9.12857872,72.6706462 L12.8874052,100.951341 L13.7823639,119.745474 L15.7512731,119.745474 L16.6462318,100.951341 L20.0470748,72.6706462 L29.1756535,72.6706462 L21.8369922,127.62111 L7.33866132,127.62111 L0,72.6706462 L9.12857872,72.6706462 Z M71.7756876,80.367291 L68.3748445,80.367291 L68.3748445,100.593358 L71.5966958,100.593358 C73.0286297,100.593358 74.2815719,100.235374 74.9975389,99.5194072 C75.7135058,98.8034402 76.0714893,97.9084815 76.250481,96.4765476 C76.250481,95.2236054 76.4294728,93.7916715 76.4294728,92.5387293 L76.4294728,88.4219193 C76.4294728,87.1689772 76.4294728,85.7370432 76.250481,84.4841011 C76.250481,83.2311589 75.7135058,82.1572084 74.9975389,81.4412415 C74.2815719,80.7252745 73.2076215,80.367291 71.7756876,80.367291 Z M236.090104,80.367291 L232.868253,80.367291 L232.689261,100.593358 L235.911113,100.593358 C237.343047,100.593358 238.595989,100.235374 239.311956,99.5194072 C240.027923,98.8034402 240.385906,97.9084815 240.564898,96.4765476 C240.564898,95.2236054 240.74389,93.7916715 240.74389,92.5387293 L240.74389,88.4219193 C240.74389,87.1689772 240.74389,85.7370432 240.564898,84.4841011 C240.564898,83.2311589 240.027923,82.1572084 239.311956,81.4412415 C238.595989,80.7252745 237.522038,80.367291 236.090104,80.367291 Z" id="versicherungs"></path>
                <path d="M91.6437706,0 C95.9395724,0 99.1614237,0.894958698 101.130333,2.86386783 C103.099242,4.83277697 104.352184,8.05462828 104.531176,12.5294218 C104.531176,13.7823639 104.710168,15.2142979 104.710168,16.6462318 C104.710168,18.0781657 104.710168,19.5100996 104.531176,20.7630418 L95.5815889,20.7630418 C95.5815889,19.3311079 95.7605806,17.7201822 95.7605806,15.7512731 C95.7605806,13.7823639 95.7605806,12.1714383 95.5815889,10.7395044 C95.5815889,9.4865622 95.2236054,8.5916035 94.5076385,8.05462828 C93.7916715,7.51765306 92.8967128,7.15966958 91.6437706,7.15966958 C90.2118367,7.15966958 89.1378863,7.51765306 88.6009111,8.05462828 C87.8849441,8.5916035 87.5269606,9.66555393 87.5269606,10.7395044 C87.3778009,12.9769011 87.3529409,15.2142979 87.3487976,17.5552778 L87.3479689,36.5143149 C87.3479689,39.3781827 87.5269606,42.2420505 87.5269606,44.7479349 C87.5269606,46.0008771 87.8849441,46.8958358 88.6009111,47.6118027 C89.316878,48.3277697 90.3908285,48.5067614 91.6437706,48.5067614 C92.8967128,48.5067614 94.149655,48.1487779 94.865622,47.6118027 C95.5815889,47.0748275 96.1185641,46.0008771 96.1185641,44.7479349 L96.1185641,36.8722983 L92.1807459,36.8722983 L92.1807459,29.1756535 L104.710168,29.1756535 C104.710168,31.1445627 104.889159,33.4714553 104.889159,35.7983479 C104.889159,38.3042323 104.889159,40.6311249 104.710168,43.1370092 C104.531176,47.6118027 103.457225,50.833654 101.309325,52.8025632 C99.1614237,54.7714723 96.1185641,56.382398 91.6437706,56.382398 C88.6009111,56.382398 86.0950267,56.0244145 84.1261176,55.1294558 C82.1572084,54.2344971 80.9042663,52.9815549 80.0093076,51.0126458 C79.1143489,49.2227284 78.5773737,46.716844 78.5773737,43.6739844 C78.5773737,41.5260836 78.3983819,39.0201992 78.3983819,36.3353231 L78.3983819,20.2260666 C78.3983819,17.5411905 78.3983819,15.2142979 78.5773737,13.066397 C78.7563654,9.84454567 79.2933406,7.33866132 80.1882993,5.36975219 C81.083258,3.40084305 82.5151919,2.14790087 84.3051093,1.25294218 C86.0950267,0.357983479 88.6009111,0 91.6437706,0 Z M45.1059184,0.17899174 C49.5807119,0.17899174 52.9815549,1.07395044 54.950464,3.04285957 C56.9193732,5.01176871 57.9933236,8.23362002 58.1723153,12.7084135 C58.1723153,15.2142979 58.3513071,17.899174 58.3513071,20.4050583 L58.3513071,36.1563314 C58.3513071,38.8412075 58.1723153,41.3470918 58.1723153,43.8529762 C57.9933236,48.3277697 56.9193732,51.549621 54.950464,53.5185301 C52.9815549,55.4874393 49.7597036,56.382398 45.1059184,56.382398 C40.4521331,56.382398 37.2302818,55.4874393 35.2613727,53.5185301 C33.2924636,51.549621 32.2185131,48.3277697 32.0395214,43.8529762 C32.0395214,41.3470918 32.0395214,38.8412075 31.8605296,36.1563314 L31.8605296,20.4050583 C31.8605296,17.7201822 31.8605296,15.2142979 32.0395214,12.7084135 C32.0395214,8.23362002 33.1134718,5.01176871 35.2613727,3.04285957 C37.2302818,1.07395044 40.6311249,0.17899174 45.1059184,0.17899174 Z M9.12857872,0.894958698 L12.8874052,29.1756535 L13.7823639,47.9697862 L15.7512731,47.9697862 L16.6462318,29.1756535 L20.4050583,0.894958698 L29.533637,0.894958698 L22.1949757,55.8454227 L7.33866132,55.8454227 L1.01745024e-13,0.894958698 L9.12857872,0.894958698 Z M72.849638,0.894958698 L72.849638,55.8454227 L63.900051,55.8454227 L63.900051,0.894958698 L72.849638,0.894958698 Z M133.169854,0.894958698 L133.169854,8.77059524 L124.757242,8.77059524 L124.757242,55.8454227 L115.986647,55.8454227 L115.986647,8.77059524 L107.574035,8.77059524 L107.574035,0.894958698 L133.169854,0.894958698 Z M45.1059184,7.51765306 C43.6739844,7.51765306 42.600034,7.87563654 41.8840671,8.41261176 C41.1681001,8.94958698 40.8101166,9.84454567 40.8101166,11.0974879 C40.8101166,13.6033722 40.6311249,16.46724 40.6311249,19.3311079 L40.6311249,37.2302818 C40.6311249,40.0941497 40.8101166,42.9580175 40.8101166,45.4639018 C40.8101166,46.716844 41.1681001,47.6118027 41.8840671,48.3277697 C42.600034,49.0437366 43.6739844,49.2227284 45.1059184,49.2227284 C46.5378523,49.2227284 47.6118027,48.8647449 48.3277697,48.3277697 C49.0437366,47.7907945 49.4017201,46.716844 49.4017201,45.4639018 C49.4017201,42.9580175 49.5807119,40.0941497 49.5807119,37.2302818 L49.5807119,19.3311079 C49.5807119,16.46724 49.4017201,13.6033722 49.4017201,11.0974879 C49.4017201,9.84454567 49.0437366,8.94958698 48.3277697,8.41261176 C47.6118027,7.87563654 46.5378523,7.51765306 45.1059184,7.51765306 Z" id="voigt"></path>
            </g>
            <g id="logo" transform="translate(-0, 0.895)">
                <polygon id="Path" points="197.069905 99.5194072 195.279988 143.372383 187.583343 143.372383 185.793426 99.5194072 171.116103 2.54362561e-14 132.632879 2.54362561e-14 161.450549 198.501839 221.412782 198.501839 250.230452 2.54362561e-14 211.747228 2.54362561e-14"></polygon>
                <polygon id="Path" points="64.616018 99.5194072 62.8261006 143.372383 54.950464 143.372383 53.1605466 99.5194072 38.483224 2.54362561e-14 2.72103321e-23 2.54362561e-14 28.8176701 198.501839 88.9588945 198.501839 117.776565 2.54362561e-14 79.2933406 2.54362561e-14"></polygon>
                <polygon id="Path" points="356.193562 75.1765306 353.687677 143.372383 346.349016 143.372383 343.66414 75.1765306 327.375892 0 267.592651 0 267.592651 198.322847 304.822932 198.322847 304.822932 137.286664 299.274188 54.950464 306.433858 54.950464 314.84647 139.792549 330.060768 198.322847 369.975926 198.322847 385.369215 139.792549 393.602835 54.950464 393.602835 55.1294558 400.941497 55.1294558 395.213761 137.465656 395.213761 198.501839 432.444043 198.501839 432.444043 0 372.839793 0"></polygon>
            </g>
        </g>
    </g>
</svg>